<svg width="24" height="24" viewBox="0 0 24 24" xmlns="http://www.w3.org/2000/svg">
  <path
    d="m19.171 3.436 1.407 1.406c.29.291.436.642.436 1.053 0 .411-.146.762-.436 1.053L18.82 8.705l-3.512-3.512 1.756-1.757A1.475 1.475 0 0 1 18.118 3a1.475 1.475 0 0 1 1.053.436ZM5.476 15.026l9.131-9.131 3.512 3.512-9.131 9.132-3.512-3.513Zm-2.462 5.971 1.756-5.268 3.512 3.512-5.268 1.756Z"
    fill="#FFF" fill-rule="evenodd" />
</svg>
