<svg xmlns="http://www.w3.org/2000/svg" viewBox="0 0 32 32">
  <title>iconbank</title>
  <g id="launcher">
    <path d="M10,9.55v-1A.52.52,0,0,0,9.48,8H6.9A7.31,7.31,0,0,0,3,9.12a.51.51,0,0,0,.29.94H9.48A.51.51,0,0,0,10,9.55Z"
      style="fill:#ff7b00" />
    <path
      d="M22,9.55v-1A.52.52,0,0,1,22.52,8H25.1A7.31,7.31,0,0,1,29,9.12a.51.51,0,0,1-.29.94H22.52A.51.51,0,0,1,22,9.55Z"
      style="fill:#ff7b00" />
    <path
      d="M31.82,16a6.67,6.67,0,0,0-6.53-5c-.22,0-.43,0-.64,0v0H7.35v0c-.21,0-.42,0-.64,0A6.67,6.67,0,0,0,.18,16H0v1.5A6.6,6.6,0,0,0,6.71,24a6.81,6.81,0,0,0,4.84-2h8.9a6.81,6.81,0,0,0,4.84,2A6.6,6.6,0,0,0,32,17.5V16Z"
      style="fill:#ff7b00" />
    <path
      d="M25.29,9H6.71A6.62,6.62,0,0,0,0,15.53,6.57,6.57,0,0,0,6.71,22a6.76,6.76,0,0,0,4.84-2h8.9a6.76,6.76,0,0,0,4.84,2A6.57,6.57,0,0,0,32,15.53,6.62,6.62,0,0,0,25.29,9Z"
      style="fill:#ffab00" />
    <path
      d="M19.06,12.43l-.23-1.06L18.27,11l-1.11.07S16.42,11,16,11A4,4,0,0,0,12,15,3.89,3.89,0,0,0,12.58,17h.23l3-3c.28.27.66-.1.77-.22l.39.37L15.14,16v1h4.28a3.88,3.88,0,0,0-.36-4.57Z"
      style="fill:#ff7b00" />
    <path
      d="M16,10A4,4,0,0,0,12,14,3.89,3.89,0,0,0,12.58,16h.23l3-3c.28.27.66-.1.77-.22l-.19-.18c-.27-.26-.49.13-.49.13l-.58-.57s.9-.4,1.39.08l.37.36.67-.66a.5.5,0,0,1,.11-.52.51.51,0,0,1,.71,0,.49.49,0,0,1-.52.81l-.67.67.36.36c.49.48.08,1.38.08,1.38l-.58-.58s.4-.22.14-.48l-.19-.19c-.12.11-.49.49-.22.76L15.14,16h4.28A3.89,3.89,0,0,0,20,14,4,4,0,0,0,16,10Z"
      style="fill:#fff" />
    <path
      d="M8.25,15H7V13.75A.76.76,0,0,0,6.25,13h-.5a.76.76,0,0,0-.75.75V15H3.75a.76.76,0,0,0-.75.75v.5a.76.76,0,0,0,.75.75H5v1.25a.76.76,0,0,0,.75.75h.5A.76.76,0,0,0,7,18.25V17H8.25A.76.76,0,0,0,9,16.25v-.5A.76.76,0,0,0,8.25,15Z"
      style="fill:#ff7b00" />
    <path
      d="M8.25,14H7V12.75A.76.76,0,0,0,6.25,12h-.5a.76.76,0,0,0-.75.75V14H3.75a.76.76,0,0,0-.75.75v.5a.76.76,0,0,0,.75.75H5v1.25a.76.76,0,0,0,.75.75h.5A.76.76,0,0,0,7,17.25V16H8.25A.76.76,0,0,0,9,15.25v-.5A.76.76,0,0,0,8.25,14Z"
      style="fill:#fff" />
    <circle cx="25" cy="14" r="1" style="fill:#ff7b00" />
    <circle cx="25" cy="13" r="1" style="fill:#fff" />
    <circle cx="25" cy="18" r="1" style="fill:#ff7b00" />
    <circle cx="25" cy="17" r="1" style="fill:#fff" />
    <circle cx="22" cy="16" r="1" style="fill:#ff7b00" />
    <circle cx="22" cy="15" r="1" style="fill:#fff" />
    <circle cx="28" cy="16" r="1" style="fill:#ff7b00" />
    <circle cx="28" cy="15" r="1" style="fill:#fff" />
  </g>
</svg>
