{{- define "response" -}}
  {{- $indexedPages := slice -}}

  {{- range .Site.RegularPages -}}
    {{- $currentPage := . -}}
    {{- $defaultPage := $currentPage -}}
    {{- range where .AllTranslations "Lang" .Site.Params.defaultLanguageCode -}}
      {{- $defaultPage = . -}}
    {{- end -}}
    {{- $item := dict
      "title"         (cond (eq $currentPage.Params.Title nil) $defaultPage.Params.Title $currentPage.Params.Title)
      "kind"          .Kind
      "section"       .Section
      "tags"          .Params.Tags
      "relPermalink"  .RelPermalink
      "excerpt"       .Params.Excerpt
    -}}
    {{- $indexedPages = $indexedPages | append $item -}}
  {{- end -}}

  {{- if (eq site.Params.search_minify true) -}}
    {{- $indexedPages | jsonify -}}
  {{- else -}}
    {{- $jsonifyOptions := dict "indent" "  " -}}
    {{- $indexedPages | jsonify $jsonifyOptions -}}
  {{- end -}}
{{- end -}}
